<svg width="110" height="16" viewBox="0 0 110 16" fill="none" xmlns="http://www.w3.org/2000/svg">
<path d="M9.91985 0.212827V10.0409C9.91985 11.8195 8.6338 13.104 6.65767 13.104C4.68938 13.104 3.39549 11.8195 3.39549 10.0409V0.212827H0V10.3221C0 13.7273 2.65052 16 6.65767 16C10.6491 16 13.3153 13.7273 13.3153 10.3221V0.212827H9.91985Z" fill="white"/>
<path d="M31.3085 0.212827H27.9287V10.0029H27.7876L20.8554 0.212827H17.8756V15.7796H21.2711V5.98195H21.3887L28.3757 15.7796H31.3085V0.212827Z" fill="white"/>
<path d="M39.276 0.212827H35.8805V15.7796H39.276V0.212827Z" fill="white"/>
<path d="M58.0063 5.66271C57.5594 2.06746 54.752 0 51.035 0C46.7926 0 43.5539 2.90356 43.5539 7.9962C43.5539 13.0736 46.7377 15.9924 51.035 15.9924C55.1519 15.9924 57.6378 13.3397 58.0063 10.4741L54.5716 10.4589C54.2501 12.1235 52.9013 13.0812 51.0899 13.0812C48.6511 13.0812 46.9965 11.3254 46.9965 7.9962C46.9965 4.75819 48.6276 2.91116 51.1134 2.91116C52.9719 2.91116 54.3129 3.95249 54.5716 5.66271H58.0063Z" fill="white"/>
<path d="M64.674 15.7796L65.866 12.2299H71.6611L72.853 15.7796H76.4916L70.9553 0.212827H66.5796L61.0355 15.7796H64.674ZM66.7286 9.66081L68.7047 3.77007H68.8302L70.8063 9.66081H66.7286Z" fill="white"/>
<path d="M80.1912 15.7796H83.5867V10.2613H86.0647L89.1073 15.7796H92.8557L89.4445 9.72922C91.2716 8.96912 92.2832 7.42613 92.2832 5.29786C92.2832 2.20427 90.1738 0.212827 86.5274 0.212827H80.1912V15.7796ZM83.5867 7.61615V2.90356H85.8765C87.8369 2.90356 88.7858 3.74727 88.7858 5.29786C88.7858 6.84085 87.8369 7.61615 85.8922 7.61615H83.5867Z" fill="white"/>
<path d="M102.143 15.7796C107.036 15.7796 110 12.8456 110 7.981C110 3.13159 107.036 0.212827 102.19 0.212827H96.4494V15.7796H102.143ZM99.8449 12.9596V3.03278H102.009C105.02 3.03278 106.612 4.52256 106.612 7.981C106.612 11.4546 105.02 12.9596 102.001 12.9596H99.8449Z" fill="white"/>
</svg>
