<svg width="80" height="80" viewBox="0 0 80 80" fill="none" xmlns="http://www.w3.org/2000/svg">
<path fill-rule="evenodd" clip-rule="evenodd" d="M30.7666 0L49.2334 0C59.9316 0 63.811 1.11391 67.7221 3.20559C71.6333 5.29728 74.7027 8.36674 76.7944 12.2779C78.8861 16.189 80 20.0684 80 30.7666V49.2334C80 59.9316 78.8861 63.811 76.7944 67.7221C74.7027 71.6333 71.6333 74.7027 67.7221 76.7944C63.811 78.8861 59.9316 80 49.2334 80H30.7666C20.0684 80 16.189 78.8861 12.2779 76.7944C8.36674 74.7027 5.29728 71.6333 3.20559 67.7221C1.11391 63.811 0 59.9316 0 49.2334L0 30.7666C0 20.0684 1.11391 16.189 3.20559 12.2779C5.29728 8.36674 8.36674 5.29728 12.2779 3.20559C16.189 1.11391 20.0684 0 30.7666 0Z" fill="#FBDE4B"/>
<path fill-rule="evenodd" clip-rule="evenodd" d="M32.4165 26L32.3525 26L32.3524 26C30.7569 26 29.4709 26 28.4595 26.1359C27.4093 26.2771 26.5251 26.5792 25.8229 27.2814C25.1207 27.9836 24.8186 28.8678 24.6774 29.918C24.5415 30.9294 24.5415 32.2155 24.5415 33.811L24.5415 33.811L24.5415 33.875L24.5415 46.125L24.5415 46.189C24.5415 47.7845 24.5415 49.0706 24.6774 50.082C24.8186 51.1322 25.1207 52.0164 25.8229 52.7186C26.5251 53.4208 27.4093 53.7229 28.4595 53.8641C29.4709 54 30.757 54 32.3525 54L32.3525 54L32.4165 54L38.8332 54L38.8972 54C40.4927 54 41.7788 54 42.7902 53.8641C43.8403 53.7229 44.7245 53.4208 45.4268 52.7186C46.129 52.0164 46.431 51.1322 46.5722 50.082C46.6467 49.5279 46.6804 48.8914 46.6956 48.1667L49.9165 48.1667L49.9772 48.1667C51.0254 48.1667 51.8995 48.1667 52.5934 48.0734C53.3259 47.975 53.9871 47.7584 54.5185 47.227C55.0499 46.6956 55.2665 46.0343 55.365 45.3019C55.4583 44.608 55.4583 43.7339 55.4582 42.6857L55.4582 42.625L55.4582 37.375L55.4582 37.3144C55.4583 36.2661 55.4583 35.392 55.365 34.6981C55.2665 33.9657 55.0499 33.3044 54.5185 32.773C53.9871 32.2417 53.3259 32.025 52.5934 31.9266C51.8995 31.8333 51.0254 31.8333 49.9772 31.8333L49.9165 31.8333L46.6956 31.8333C46.6804 31.1086 46.6467 30.4721 46.5722 29.918C46.431 28.8678 46.129 27.9836 45.4268 27.2814C44.7245 26.5792 43.8403 26.2771 42.7902 26.1359C41.7788 26 40.4927 26 38.8972 26L38.8972 26L38.8332 26L32.4165 26ZM46.7082 33.5833L46.7082 33.811L46.7082 33.875L46.7082 36.2083L53.703 36.2083C53.6953 35.6857 53.6766 35.2732 53.6306 34.9313C53.5582 34.3929 53.4331 34.1625 53.2811 34.0105C53.129 33.8584 52.8986 33.7334 52.3603 33.661C51.7967 33.5852 51.0412 33.5833 49.9165 33.5833L46.7082 33.5833ZM46.7082 46.125L46.7082 37.9583L53.7082 37.9583L53.7082 42.625C53.7082 43.7497 53.7064 44.5052 53.6306 45.0687C53.5582 45.6071 53.4331 45.8375 53.2811 45.9895C53.129 46.1416 52.8986 46.2667 52.3603 46.3391C51.7967 46.4148 51.0412 46.4167 49.9165 46.4167L46.7082 46.4167L46.7082 46.189L46.7082 46.125ZM29.7916 34.1667L29.7916 34.1667C29.7916 33.0763 29.7916 32.5311 30.026 32.125C30.1796 31.859 30.4006 31.6381 30.6666 31.4845C31.0727 31.25 31.6179 31.25 32.7083 31.25L38.5416 31.25C39.632 31.25 40.1772 31.25 40.5833 31.4845C40.8493 31.6381 41.0702 31.859 41.2238 32.125C41.4583 32.5311 41.4583 33.0763 41.4583 34.1667C41.4583 35.2571 41.4583 35.8023 41.2238 36.2083C41.0702 36.4744 40.8493 36.6953 40.5833 36.8489C40.1772 37.0833 39.632 37.0833 38.5416 37.0833L32.7083 37.0833C31.6179 37.0833 31.0727 37.0833 30.6666 36.8489C30.4006 36.6953 30.1796 36.4744 30.026 36.2083C29.7916 35.8023 29.7916 35.2571 29.7916 34.1667ZM31.2499 44.375C32.0553 44.375 32.7083 43.7221 32.7083 42.9167C32.7083 42.1113 32.0553 41.4583 31.2499 41.4583C30.4445 41.4583 29.7916 42.1113 29.7916 42.9167C29.7916 43.7221 30.4445 44.375 31.2499 44.375ZM32.7083 47.2917C32.7083 48.0971 32.0553 48.75 31.2499 48.75C30.4445 48.75 29.7916 48.0971 29.7916 47.2917C29.7916 46.4863 30.4445 45.8333 31.2499 45.8333C32.0553 45.8333 32.7083 46.4863 32.7083 47.2917ZM35.6249 44.375C36.4303 44.375 37.0833 43.7221 37.0833 42.9167C37.0833 42.1113 36.4303 41.4583 35.6249 41.4583C34.8195 41.4583 34.1666 42.1113 34.1666 42.9167C34.1666 43.7221 34.8195 44.375 35.6249 44.375ZM37.0833 47.2917C37.0833 48.0971 36.4303 48.75 35.6249 48.75C34.8195 48.75 34.1666 48.0971 34.1666 47.2917C34.1666 46.4863 34.8195 45.8333 35.6249 45.8333C36.4303 45.8333 37.0833 46.4863 37.0833 47.2917ZM39.9999 44.375C40.8053 44.375 41.4583 43.7221 41.4583 42.9167C41.4583 42.1113 40.8053 41.4583 39.9999 41.4583C39.1945 41.4583 38.5416 42.1113 38.5416 42.9167C38.5416 43.7221 39.1945 44.375 39.9999 44.375ZM41.4583 47.2917C41.4583 48.0971 40.8053 48.75 39.9999 48.75C39.1945 48.75 38.5416 48.0971 38.5416 47.2917C38.5416 46.4863 39.1945 45.8333 39.9999 45.8333C40.8053 45.8333 41.4583 46.4863 41.4583 47.2917Z" fill="black"/>
</svg>
