<svg width="259" height="31" viewBox="0 0 259 31" fill="none" xmlns="http://www.w3.org/2000/svg">
<path fill-rule="evenodd" clip-rule="evenodd" d="M214.321 28.1629C211.354 30.0178 207.817 31 204.28 31C202.681 31 200.97 30.6726 199.372 30.127C198.003 29.6905 196.635 28.9268 195.492 28.0537C194.466 27.1807 193.554 26.0895 192.869 24.8891C192.185 23.6888 191.727 22.2703 191.613 20.8516C191.499 19.2148 191.499 17.578 191.841 16.0502C192.527 12.7766 194.122 9.72116 196.406 7.21135C197.547 6.01109 198.802 4.91987 200.286 4.04687C203.253 2.19181 206.789 1.20972 210.326 1.20972C211.925 1.20972 213.637 1.42796 215.234 1.97357C216.604 2.41005 217.973 3.06479 219.115 4.04687C220.142 4.91987 221.054 6.12021 221.738 7.32047C222.422 8.52092 222.765 9.93942 222.993 11.3581C223.107 12.8858 223.107 14.5226 222.765 16.0502C222.422 17.7963 221.853 19.324 221.054 20.8516C219.57 23.9071 217.173 26.4169 214.321 28.1629ZM205.42 25.4347C204.165 25.4347 202.911 25.2164 201.768 24.6708C200.856 24.2345 200.056 23.4706 199.486 22.5976C198.916 21.7247 198.573 20.6333 198.461 19.6514C198.347 18.4509 198.345 17.2507 198.689 16.1594C198.916 14.9591 199.372 13.7586 199.942 12.6675C200.514 11.5762 201.199 10.5942 202.111 9.72116C203.025 8.84829 204.051 8.19352 205.192 7.64787C206.448 7.10221 207.703 6.88412 209.072 6.88412C210.326 6.88412 211.583 7.10221 212.609 7.64787C213.523 8.08438 214.321 8.84829 214.892 9.72116C215.462 10.5942 215.804 11.6853 215.92 12.6675C216.034 13.8678 216.034 15.0682 215.804 16.1594C215.578 17.3597 215.12 18.56 214.55 19.6514C213.979 20.7424 213.295 21.7247 212.381 22.5976C210.556 24.4527 208.045 25.4347 205.42 25.4347ZM171.416 7.53873H175.524C176.893 7.53873 178.149 7.75699 179.402 8.19352C180.43 8.63004 181.229 9.17569 181.799 10.0486C182.369 10.9216 182.713 11.9036 182.825 12.8858C182.941 14.086 182.941 15.2865 182.599 16.4867C182.369 17.6872 182.027 18.7784 181.456 19.8696C180.887 20.8516 180.202 21.8338 179.402 22.5976C178.49 23.3615 177.463 24.0162 176.437 24.4527C175.18 24.8891 173.811 25.1074 172.556 25.1074H167.991L171.416 7.53873ZM220.71 27.1807C220.71 27.2352 220.682 27.2898 220.653 27.3444C220.625 27.399 220.598 27.4536 220.598 27.508C220.598 27.6171 220.598 27.7263 220.484 27.8354C220.368 28.381 220.368 28.9268 220.598 29.3631C220.826 29.7997 221.168 30.127 221.512 30.3453C221.966 30.5636 222.537 30.6726 223.107 30.6726C223.791 30.6726 224.477 30.5636 225.048 30.3453C225.504 30.127 225.962 29.7997 226.304 29.3631C226.646 28.9268 226.988 28.381 227.216 27.8354L233.151 11.4671H233.263L235.318 28.381C235.318 28.7085 235.432 29.1448 235.66 29.4722C235.89 29.9087 236.232 30.127 236.574 30.3453C237.144 30.6726 237.827 30.7817 238.399 30.7817C239.083 30.7817 239.769 30.6726 240.452 30.3453C240.908 30.127 241.366 29.7997 241.822 29.4722C242.165 29.1448 242.392 28.8176 242.621 28.381L251.408 11.4671H251.522L250.95 27.8354C250.95 28.381 250.95 28.9268 251.18 29.3631C251.408 29.7997 251.636 30.127 252.094 30.3453C253.233 30.7817 254.489 30.7817 255.63 30.3453C256.2 30.127 256.656 29.7997 257 29.3631C257.342 28.9268 257.684 28.381 257.798 27.8354C257.798 27.7263 257.798 27.6171 257.913 27.508V27.1807L258.139 4.70161C258.139 4.37425 258.025 3.93775 257.913 3.61039C257.862 3.53935 257.814 3.46317 257.762 3.3852C257.579 3.10387 257.383 2.79917 257.112 2.62829C256.77 2.30093 256.314 2.08268 255.858 1.86444C255.401 1.6462 254.831 1.53708 254.261 1.53708C253.575 1.53708 252.777 1.6462 252.094 1.97357C251.408 2.19181 250.836 2.62829 250.266 3.06479C249.811 3.50127 249.467 3.93775 249.125 4.48335L240.566 20.4152H240.452L238.285 4.48335C238.169 3.93775 237.943 3.50127 237.715 3.06479C237.372 2.62829 236.916 2.19181 236.346 1.97357C235.774 1.6462 235.089 1.53708 234.405 1.53708C233.835 1.53708 233.263 1.6462 232.693 1.86444C232.123 2.08268 231.666 2.30093 231.21 2.62829C230.754 2.95558 230.412 3.28287 230.07 3.61016L230.068 3.61039C229.726 3.93775 229.499 4.26511 229.385 4.70161L220.71 27.1807ZM160.69 28.9268C160.575 28.4902 160.575 27.9446 160.69 27.508L164.911 4.91987C165.025 4.37425 165.367 3.71951 165.709 3.28303C166.165 2.84653 166.622 2.41005 167.193 2.19181C167.879 1.86444 168.448 1.75532 169.133 1.75532H176.664C178.832 1.75532 181.114 2.08268 183.169 2.84653C186.707 4.04687 189.216 6.99325 189.788 10.4851C190.13 12.5584 190.13 14.6317 189.672 16.5959C189.216 18.6692 188.533 20.6333 187.391 22.3792C186.365 24.0162 184.996 25.5439 183.397 26.7442C181.685 28.0537 179.86 28.9268 177.919 29.5814C175.866 30.2361 173.584 30.5636 171.416 30.5636H163.541C163.199 30.5636 162.743 30.5636 162.401 30.4544C162.059 30.3453 161.715 30.127 161.373 29.9087C161.031 29.5814 160.802 29.2539 160.69 28.9268Z" fill="black"/>
<path fill-rule="evenodd" clip-rule="evenodd" d="M144.942 25.3255C143.573 25.3255 142.316 25.1074 141.176 24.5618C140.148 24.1254 139.235 23.3615 138.551 22.4884C137.866 21.6155 137.297 20.6333 136.953 19.5422C136.611 18.4509 136.497 17.2507 136.497 16.0502C136.497 14.8499 136.726 13.6495 137.068 12.5584C137.409 11.467 137.981 10.4851 138.666 9.61201C139.35 8.73914 140.263 8.08436 141.29 7.53871C142.316 6.99306 143.573 6.77496 144.942 6.77496C146.311 6.77496 147.566 6.99306 148.594 7.53871C149.62 8.08436 150.533 8.73914 151.218 9.61201C151.902 10.4851 152.473 11.467 152.815 12.5584C153.157 13.6495 153.386 14.8499 153.386 16.0502C153.386 17.2507 153.157 18.4509 152.929 19.5422C152.588 20.6333 152.016 21.6155 151.331 22.4884C150.647 23.3615 149.734 24.0162 148.707 24.5618C147.681 25.1074 146.424 25.3255 144.942 25.3255ZM99.8674 27.5079C99.8674 28.1629 99.9816 28.7085 100.324 29.2539C100.552 29.6905 101.008 30.0178 101.465 30.3453C101.921 30.5634 102.492 30.6726 103.177 30.6726C103.861 30.6726 104.432 30.5634 104.888 30.3453C105.345 30.127 105.801 29.7995 106.029 29.2539C106.372 28.8176 106.486 28.1629 106.486 27.5079V12.5584H106.6L120.749 29.2539C120.978 29.4722 121.206 29.6905 121.549 29.9087C121.891 30.127 122.233 30.2361 122.575 30.3453C122.919 30.4544 123.261 30.5634 123.488 30.5634C124.173 30.5634 124.743 30.4544 125.199 30.2361C125.656 30.0178 126.112 29.6905 126.341 29.1447C126.683 28.7085 126.798 28.0537 126.798 27.399V4.70157C126.798 4.04685 126.683 3.50125 126.341 2.95564C125.999 2.51914 125.656 2.19178 125.199 1.86442C124.743 1.64616 124.173 1.53706 123.488 1.53706C122.804 1.53706 122.233 1.64616 121.777 1.86442C121.32 2.08266 120.864 2.41004 120.636 2.95564C120.407 3.39212 120.18 4.04685 120.18 4.70157V19.8695H120.065L105.915 2.84652C105.687 2.62828 105.459 2.41004 105.117 2.19178C104.774 1.97354 104.432 1.86442 104.09 1.7553C103.747 1.64616 103.405 1.53706 103.063 1.53706C102.378 1.53706 101.807 1.64616 101.351 1.86442C100.894 2.08266 100.438 2.41004 100.21 2.95564C99.8674 3.39212 99.7533 4.04685 99.7533 4.70157V27.5079H99.8674ZM70.6548 27.5079C70.6548 28.1629 70.769 28.7085 71.1114 29.2539C71.4537 29.6905 71.796 30.0178 72.2524 30.3453C72.7088 30.5634 73.2794 30.6726 73.9641 30.6726C74.6487 30.6726 75.2192 30.5634 75.6757 30.3453C76.1323 30.127 76.5887 29.7995 76.8168 29.2539C77.1591 28.8176 77.2734 28.1629 77.2734 27.5079V18.7783H89.5974V27.5079C89.5974 28.1629 89.7114 28.7085 90.0538 29.2539C90.2821 29.6905 90.7384 30.0178 91.1948 30.3453C91.6514 30.5634 92.2218 30.6726 92.9065 30.6726C93.5913 30.6726 94.1617 30.5634 94.6183 30.3453C95.0747 30.127 95.5311 29.7995 95.7594 29.2539C96.1017 28.8176 96.2158 28.1629 96.2158 27.5079V4.70157C96.2158 4.04685 96.1017 3.50125 95.7594 2.95564C95.4171 2.51914 95.0747 2.19178 94.6183 1.86442C94.1617 1.64616 93.5913 1.53706 92.9065 1.53706C92.2218 1.53706 91.6514 1.64616 91.1948 1.86442C90.7384 2.08266 90.2821 2.41004 90.0538 2.95564C89.7114 3.39212 89.5974 4.04685 89.5974 4.70157V13.2131H77.3874V4.70157C77.3874 4.04685 77.2734 3.50125 76.931 2.95564C76.5887 2.51914 76.2462 2.19178 75.79 1.86442C75.3334 1.64616 74.7628 1.53706 74.0783 1.53706C73.3935 1.53706 72.8228 1.64616 72.3665 1.86442C71.9101 2.08266 71.4537 2.41004 71.2254 2.95564C70.8831 3.39212 70.769 4.04685 70.769 4.70157L70.6548 27.5079ZM43.4962 16.0502C43.4962 17.6871 43.7245 19.3239 44.1809 20.7424C44.6374 22.2702 45.3219 23.5796 46.2349 24.7799C47.1478 25.9803 48.1748 27.0715 49.4301 27.9446C50.6852 28.8176 52.1686 29.5814 53.6521 30.0178C55.2498 30.4544 56.9615 30.7817 58.7872 30.7817C59.3578 30.7817 59.9284 30.7817 60.7271 30.6726C61.4118 30.6726 62.2105 30.5634 62.8952 30.3453C63.6939 30.2361 64.3787 30.0178 65.0634 29.7995C65.7481 29.5814 66.4327 29.2539 67.0032 28.9268C67.5738 28.5993 68.0302 28.1629 68.3725 27.6171C68.715 27.1806 68.8289 26.5261 68.9433 25.9803C68.9433 25.7622 68.8289 25.4347 68.715 25.2164C68.6008 24.8891 68.3725 24.5616 68.1444 24.3435C67.9161 24.0162 67.5738 23.7979 67.2315 23.5796C66.8891 23.3615 66.4327 23.2523 65.9762 23.2523C65.5198 23.2523 65.0634 23.3615 64.607 23.4706C64.1504 23.6887 63.6939 23.7979 63.1235 24.0162C62.553 24.2345 61.9822 24.4527 61.2976 24.5616C60.6131 24.7799 59.814 24.7799 58.9014 24.7799C57.5319 24.7799 56.2768 24.5616 55.2498 24.0162C54.2228 23.5796 53.3098 22.9248 52.6252 22.0519C51.9405 21.179 51.3699 20.306 51.0277 19.2148C50.6852 18.1234 50.4571 17.0324 50.4571 15.8319C50.4571 14.6317 50.6852 13.4314 51.0277 12.3401C51.3699 11.249 51.9405 10.2668 52.6252 9.39375C53.3098 8.52088 54.2228 7.86611 55.2498 7.42957C56.2768 6.99306 57.5319 6.66584 58.9014 6.66584C59.814 6.66584 60.6131 6.77496 61.2976 6.8841C61.9822 6.99306 62.553 7.21132 63.0092 7.32045C63.4658 7.53871 63.9222 7.64783 64.3787 7.75697C64.8351 7.86611 65.2917 7.97523 65.634 7.97523C66.2045 7.97523 66.6608 7.86611 67.1174 7.64783C67.5738 7.42957 67.8021 7.1022 68.0302 6.66584C68.2585 6.22931 68.3725 5.79279 68.3725 5.35628C68.3725 4.81071 68.1444 4.26509 67.9161 3.8286C67.5738 3.39212 67.1174 2.95564 66.6608 2.62828C66.0904 2.3009 65.5198 1.97354 64.8351 1.7553C64.1504 1.53706 63.4658 1.31882 62.7813 1.20968L60.7271 0.88232C60.0424 0.773193 59.4718 0.773193 58.9014 0.773193C57.0755 0.773193 55.3638 0.991441 53.7664 1.53706C52.1686 1.97354 50.7994 2.73738 49.5442 3.61036C48.2891 4.48333 47.1478 5.57453 46.3491 6.77496C45.4362 7.97523 44.7515 9.39375 44.2951 10.8124C43.7245 12.8858 43.4962 14.4134 43.4962 16.0502ZM23.9832 27.399C23.9832 28.0537 24.0974 28.4902 24.4396 29.0356C24.7821 29.4722 25.1242 29.7995 25.6949 30.127C26.2655 30.3453 26.8359 30.4544 27.4065 30.4544H38.9318C39.6165 30.4544 40.1871 30.3453 40.6433 30.0178C41.0999 29.7995 41.4424 29.3631 41.6705 29.0356C41.8988 28.5993 42.0128 28.1629 42.0128 27.7263C42.0128 27.2898 41.8988 26.8532 41.6705 26.4169C41.4424 25.9803 41.0999 25.653 40.6433 25.4347C40.1871 25.2164 39.6165 24.9982 38.8176 24.9982H30.6016V18.8875H37.9048C38.5895 18.8875 39.2742 18.7783 39.7307 18.4509C40.1871 18.2326 40.5294 17.7963 40.8716 17.4688C41.0999 17.0324 41.2141 16.5958 41.2141 16.1593C41.2141 15.723 41.0999 15.2864 40.8716 14.8499C40.6433 14.4134 40.3011 14.086 39.7307 13.8678C39.2742 13.6495 38.5895 13.4314 37.9048 13.4314H30.6016V7.53871H38.5895C39.2742 7.53871 39.8446 7.42957 40.3011 7.10218C40.7577 6.8841 41.0999 6.44758 41.3281 6.12019C41.5564 5.68367 41.6705 5.24714 41.6705 4.81071C41.6705 4.37421 41.5564 3.93773 41.3281 3.50125C41.0999 3.06476 40.7577 2.73738 40.3011 2.51914C39.8446 2.3009 39.2742 2.08266 38.4754 2.08266H27.4065C26.6078 2.08266 25.9231 2.19178 25.4666 2.51914C24.8961 2.84652 24.5538 3.283 24.3255 3.71949C24.0974 4.26509 23.9832 4.81071 23.9832 5.4654V27.399ZM7.89344 27.5079C7.89344 28.1629 8.00749 28.7085 8.34992 29.2539C8.69218 29.6905 9.03461 30.0178 9.49109 30.3453C9.94739 30.5634 10.5181 30.6726 11.2026 30.6726C11.8873 30.6726 12.458 30.5634 12.9143 30.3453C13.3708 30.127 13.8272 29.7995 14.0555 29.2539C14.2837 28.8176 14.5119 28.1629 14.5119 27.5079V7.32045H19.4188C20.1035 7.32045 20.6739 7.21132 21.1303 6.8841C21.5869 6.66584 21.9292 6.22931 22.1573 5.90193C22.3856 5.4654 22.4996 5.02895 22.4996 4.59247C22.4996 4.15597 22.3856 3.71949 22.1573 3.283C21.9292 2.84652 21.5869 2.51914 21.1303 2.3009C20.6739 2.08266 20.1035 1.86442 19.5328 1.86442H3.10068C2.41613 1.86442 1.95967 1.97354 1.5032 2.3009C1.04673 2.51914 0.704462 2.95564 0.476227 3.283C0.247991 3.71949 0.133789 4.15597 0.133789 4.59247C0.133789 5.02895 0.247991 5.4654 0.476227 5.90193C0.704462 6.33844 1.04673 6.66584 1.5032 6.8841C1.95967 7.1022 2.53018 7.32045 3.21489 7.32045H7.89344V27.5079ZM144.942 30.8909C146.768 30.8909 148.479 30.6726 150.076 30.127C151.675 29.6905 153.044 28.9268 154.299 28.0537C155.554 27.1806 156.696 26.0894 157.494 24.8891C158.407 23.6887 159.091 22.2703 159.547 20.8516C160.004 19.3239 160.233 17.7963 160.233 16.1593C160.233 14.5225 160.004 12.9949 159.547 11.467C159.091 9.93941 158.407 8.63002 157.494 7.42957C156.581 6.22931 155.554 5.13807 154.184 4.26509C152.929 3.39212 151.446 2.62828 149.962 2.19178C148.365 1.64616 146.768 1.42792 144.942 1.42792C143.116 1.42792 141.403 1.64616 139.806 2.19178C138.21 2.62828 136.84 3.39212 135.584 4.26509C134.329 5.13807 133.188 6.22931 132.39 7.42957C131.477 8.63002 130.792 10.0485 130.335 11.467C129.879 12.9949 129.651 14.5225 129.651 16.1593C129.651 17.7963 129.879 19.4331 130.335 20.8516C130.792 22.3792 131.477 23.6887 132.39 24.8891C133.301 26.0894 134.329 27.1806 135.584 28.0537C136.84 28.9268 138.322 29.6905 139.806 30.127C141.518 30.5634 143.229 30.8909 144.942 30.8909Z" fill="black"/>
</svg>
